
****** PlanAhead v14.7 (64-bit)
  **** Build 321239 by xbuild on Fri Sep 27 19:29:51 MDT 2013
    ** Copyright 1986-1999, 2001-2013 Xilinx, Inc. All Rights Reserved.

INFO: [Common 17-78] Attempting to get a license: PlanAhead
INFO: [Common 17-290] Got license for PlanAhead
INFO: [Device 21-36] Loading parts and site information from C:/Xilinx/14.7/ISE_DS/PlanAhead/data/parts/arch.xml
Parsing RTL primitives file [C:/Xilinx/14.7/ISE_DS/PlanAhead/data/parts/xilinx/rtl/prims/rtl_prims.xml]
Finished parsing RTL primitives file [C:/Xilinx/14.7/ISE_DS/PlanAhead/data/parts/xilinx/rtl/prims/rtl_prims.xml]
start_gui
source C:/Users/Joi/Desktop/Work/conways/multiplexorROM/displaymultiplex/pa.fromHdl.tcl
# create_project -name displaymultiplex -dir "C:/Users/Joi/Desktop/Work/conways/multiplexorROM/displaymultiplex/planAhead_run_1" -part xc3s500efg320-4
create_project: Time (s): elapsed = 00:00:06 . Memory (MB): peak = 464.367 ; gain = 62.816
# set_param project.pinAheadLayout yes
# set srcset [get_property srcset [current_run -impl]]
# set_property target_constrs_file "overarch.ucf" [current_fileset -constrset]
Adding file 'C:/Users/Joi/Desktop/Work/conways/multiplexorROM/displaymultiplex/overarch.ucf' to fileset 'constrs_1'
# set hdlfile [add_files [list {FSM.v}]]
# set_property file_type Verilog $hdlfile
# set_property library work $hdlfile
# set hdlfile [add_files [list {enmultiplex.v}]]
# set_property file_type Verilog $hdlfile
# set_property library work $hdlfile
# set hdlfile [add_files [list {eightxeightmem.v}]]
# set_property file_type Verilog $hdlfile
# set_property library work $hdlfile
# set hdlfile [add_files [list {ROM.v}]]
# set_property file_type Verilog $hdlfile
# set_property library work $hdlfile
# set hdlfile [add_files [list {multiplexor.v}]]
# set_property file_type Verilog $hdlfile
# set_property library work $hdlfile
# set hdlfile [add_files [list {overarch.v}]]
# set_property file_type Verilog $hdlfile
# set_property library work $hdlfile
# set_property top overarch $srcset
# add_files [list {overarch.ucf}] -fileset [get_property constrset [current_run]]
# open_rtl_design -part xc3s500efg320-4
Using Verific elaboration
Parsing VHDL file "C:/Xilinx/14.7/ISE_DS/PlanAhead/data/parts/xilinx/rtl/lib/synplify/synattr.vhd" into library synplify
Analyzing Verilog file "C:/Users/Joi/Desktop/Work/conways/multiplexorROM/displaymultiplex/FSM.v" into library work
Analyzing Verilog file "C:/Users/Joi/Desktop/Work/conways/multiplexorROM/displaymultiplex/enmultiplex.v" into library work
Analyzing Verilog file "C:/Users/Joi/Desktop/Work/conways/multiplexorROM/displaymultiplex/eightxeightmem.v" into library work
Analyzing Verilog file "C:/Users/Joi/Desktop/Work/conways/multiplexorROM/displaymultiplex/ROM.v" into library work
Analyzing Verilog file "C:/Users/Joi/Desktop/Work/conways/multiplexorROM/displaymultiplex/multiplexor.v" into library work
Analyzing Verilog file "C:/Users/Joi/Desktop/Work/conways/multiplexorROM/displaymultiplex/overarch.v" into library work
INFO: [Designutils 20-910] Reading macro library C:/Xilinx/14.7/ISE_DS/PlanAhead/data\./parts/xilinx/spartan3e/spartan3e/hd_int_macros.edn
Parsing EDIF File [C:/Xilinx/14.7/ISE_DS/PlanAhead/data\./parts/xilinx/spartan3e/spartan3e/hd_int_macros.edn]
Finished Parsing EDIF File [C:/Xilinx/14.7/ISE_DS/PlanAhead/data\./parts/xilinx/spartan3e/spartan3e/hd_int_macros.edn]
Loading clock regions from C:/Xilinx/14.7/ISE_DS/PlanAhead/data\parts/xilinx/spartan3e/spartan3e/xc3s500e/ClockRegion.xml
Loading clock buffers from C:/Xilinx/14.7/ISE_DS/PlanAhead/data\parts/xilinx/spartan3e/spartan3e/xc3s500e/ClockBuffers.xml
Loading package from C:/Xilinx/14.7/ISE_DS/PlanAhead/data\parts/xilinx/spartan3e/spartan3e/xc3s500e/fg320/Package.xml
Loading io standards from C:/Xilinx/14.7/ISE_DS/PlanAhead/data\./parts/xilinx/spartan3e/IOStandards.xml
INFO: [Device 21-19] Loading pkg sso from C:/Xilinx/14.7/ISE_DS/PlanAhead/data\parts/xilinx/spartan3e/spartan3e/xc3s500e/fg320/SSORules.xml
Loading list of drcs for the architecture : C:/Xilinx/14.7/ISE_DS/PlanAhead/data\./parts/xilinx/spartan3e/spartan3e/drc.xml
INFO: [Timing 38-77] Reading timing library C:/Xilinx/14.7/ISE_DS/PlanAhead/data\parts/xilinx/spartan3e/spartan3e/spartan3e-4.lib.
INFO: [Timing 38-34] Done reading timing library C:/Xilinx/14.7/ISE_DS/PlanAhead/data\parts/xilinx/spartan3e/spartan3e/spartan3e-4.lib.
Parsing UCF File [C:/Users/Joi/Desktop/Work/conways/multiplexorROM/displaymultiplex/overarch.ucf]
Finished Parsing UCF File [C:/Users/Joi/Desktop/Work/conways/multiplexorROM/displaymultiplex/overarch.ucf]
INFO: [Project 1-111] Unisim Transformation Summary:
No Unisim elements were transformed.

Phase 0 | Netlist Checksum: 50a8e86d
open_rtl_design: Time (s): elapsed = 00:00:17 . Memory (MB): peak = 580.859 ; gain = 113.250
update_compile_order -fileset sim_1
startgroup
set_property package_pin B18 [get_ports reset]
endgroup
startgroup
set_property package_pin B8 [get_ports clk]
endgroup
set_property package_pin "" [get_ports [list  {cathode[7]}]]
startgroup
set_property package_pin L15 [get_ports {cathode[0]}]
endgroup
startgroup
set_property package_pin K12 [get_ports {cathode[1]}]
endgroup
startgroup
set_property package_pin L17 [get_ports {cathode[2]}]
endgroup
startgroup
set_property package_pin M15 [get_ports {cathode[3]}]
endgroup
set_property package_pin "" [get_ports [list  {cathode[4]}]]
startgroup
set_property package_pin K13 [get_ports {cathode[4]}]
endgroup
startgroup
set_property package_pin L16 [get_ports {cathode[5]}]
endgroup
startgroup
set_property package_pin M14 [get_ports {cathode[6]}]
endgroup
set_property package_pin "" [get_ports [list  {cathode[7]}]]
set_property iostandard LVCMOS25 [get_ports [list {cathode[7]}]]
startgroup
set_property package_pin M16 [get_ports {cathode[7]}]
endgroup
set_property iostandard LVCMOS25 [get_ports [list {cathode[6]}]]
set_property iostandard LVCMOS33 [get_ports [list {cathode[7]}]]
set_property iostandard LVCMOS33 [get_ports [list {cathode[6]}]]
set_property iostandard LVCMOS33 [get_ports [list {cathode[5]}]]
set_property iostandard LVCMOS33 [get_ports [list {cathode[4]}]]
set_property iostandard LVCMOS33 [get_ports [list {cathode[3]}]]
set_property iostandard LVCMOS33 [get_ports [list {cathode[2]}]]
set_property iostandard LVCMOS33 [get_ports [list {cathode[1]}]]
set_property iostandard LVCMOS33 [get_ports [list {cathode[0]}]]
set_property package_pin "" [get_ports [list  {anode[7]}]]
startgroup
set_property package_pin M13 [get_ports {anode[0]}]
endgroup
startgroup
set_property package_pin R18 [get_ports {anode[1]}]
endgroup
startgroup
set_property package_pin R15 [get_ports {anode[2]}]
endgroup
startgroup
set_property package_pin T17 [get_ports {anode[3]}]
endgroup
startgroup
set_property package_pin P17 [get_ports {anode[4]}]
endgroup
startgroup
set_property package_pin R16 [get_ports {anode[5]}]
endgroup
startgroup
set_property package_pin T18 [get_ports {anode[6]}]
endgroup
startgroup
set_property package_pin U18 [get_ports {anode[7]}]
endgroup
set_property iostandard LVCMOS33 [get_ports [list {anode[7]} {anode[6]} {anode[5]} {anode[4]} {anode[3]} {anode[2]} {anode[1]} {anode[0]}]]
save_constraints
exit
ERROR: [Common 17-39] 'stop_gui' failed due to earlier errors.
INFO: [Common 17-206] Exiting PlanAhead at Wed Aug 23 23:44:43 2017...
INFO: [Common 17-83] Releasing license: PlanAhead
